<svg width="40" height="40" viewBox="0 0 40 40" fill="none" xmlns="http://www.w3.org/2000/svg">
<path d="M20 0C31.025 0 40 8.97023 40 20C40 31.0298 31.025 40 20 40C8.975 40 0 31.0298 0 20C0 8.97023 8.975 0 20 0ZM20 38.2978C30.1084 38.2978 38.3334 30.0851 38.3334 20C38.3334 9.91491 30.1084 1.70218 20 1.70218C9.89164 1.70218 1.66664 9.90637 1.66664 20C1.66664 30.0936 9.89164 38.2978 20 38.2978Z" fill="white"/>
<path d="M13.6417 29.9744C13.65 29.9659 13.6667 29.9574 13.675 29.9489L26.925 20L13.675 10.0425C13.3 9.77023 13.225 9.23406 13.4917 8.85954C13.7667 8.47657 14.2833 8.39997 14.6583 8.68082L28.825 19.3192C29.1917 19.6 29.275 20.1276 29 20.5106C28.95 20.5787 28.8917 20.6383 28.825 20.6893L14.6584 31.3191C14.2918 31.6085 13.775 31.5404 13.4918 31.166C13.2084 30.7914 13.275 30.2638 13.6417 29.9744Z" fill="white"/>
</svg>
